Victorian Crashes involving Pedestrians - Victorian Car Accidents involving Pedestrians
…
# pedestrian d.f but with Vehicle Type Desc based on frequency of occurence
p_recat <- pedestrians %>% 
      add_count(Make_Model, `Vehicle Type Desc`) %>%
      group_by(Make_Model) %>%
      mutate(`Vehicle Type Desc` = `Vehicle Type Desc`[which.max(n)]) %>%
      ungroup() %>%
      select(-n)

p_recat

# A tibble: 15,101 × 61
   ACCIDENT…¹ ACCIDENT…² ACCID…³ ACCID…⁴ Accid…⁵ DAY_O…⁶ Day W…⁷ DCA_C…⁸ DCA D…⁹
   <chr>      <date>     <time>    <dbl> <chr>     <dbl> <chr>     <dbl> <chr>  
 1 T20060000… 2006-01-16 11:00         2 Struck…       2 Monday      109 ANY MA…
 2 T20060000… 2006-01-17 04:30         2 Struck…       3 Tuesday     104 PED WA…
 3 T20060000… 2006-01-20 13:00         2 Struck…       6 Friday      100 PED NE…
 4 T20060000… 2006-01-27 14:10         2 Struck…       6 Friday      100 PED NE…
 5 T20060000… 2006-01-27 15:40         2 Struck…       6 Friday      100 PED NE…
 6 T20060000… 2006-01-27 15:47         2 Struck…       6 Friday      109 ANY MA…
 7 T20060000… 2006-01-29 15:53         2 Struck…       1 Sunday      100 PED NE…
 8 T20060000… 2006-01-29 15:53         2 Struck…       1 Sunday      100 PED NE…
 9 T20060000… 2006-02-03 07:40         2 Struck…       6 Friday      100 PED NE…
10 T20060001… 2006-02-01 12:30         2 Struck…       4 Wednes…     100 PED NE…
# … with 15,091 more rows, 52 more variables: LIGHT_CONDITION <dbl>,
#   `Light Condition Desc` <chr>, NO_OF_VEHICLES <dbl>, NO_PERSONS <dbl>,
#   NO_PERSONS_INJ_2 <dbl>, NO_PERSONS_INJ_3 <dbl>, NO_PERSONS_KILLED <dbl>,
#   NO_PERSONS_NOT_INJ <dbl>, POLICE_ATTEND <dbl>, ROAD_GEOMETRY <dbl>,
#   `Road Geometry Desc` <chr>, SEVERITY <dbl>, SPEED_ZONE <dbl>,
#   PERSON_ID <chr>, SEX <chr>, AGE <dbl>, `Age Group` <chr>, INJ_LEVEL <dbl>,
#   `Inj Level Desc` <chr>, ROAD_USER_TYPE <dbl>, …
…
